<?xml version="1.0" encoding="utf-8"?>
<!-- Generator: Adobe Illustrator 16.0.0, SVG Export Plug-In . SVG Version: 6.00 Build 0)  -->
<!DOCTYPE svg PUBLIC "-//W3C//DTD SVG 1.1//EN" "http://www.w3.org/Graphics/SVG/1.1/DTD/svg11.dtd">
<svg version="1.1" id="Layer_1" xmlns="http://www.w3.org/2000/svg" xmlns:xlink="http://www.w3.org/1999/xlink" x="0px" y="0px"
	 width="23px" height="23px" viewBox="0 0 23 23" enable-background="new 0 0 23 23" xml:space="preserve">
<path fill="#FFFFFF" d="M21.961,2.841C21.083,3.36,20.11,3.73,19.078,3.932C18.249,3.054,17.069,2.5,15.756,2.5
	c-2.514,0-4.537,2.039-4.537,4.542c0,0.36,0.034,0.706,0.114,1.038C7.555,7.887,4.198,6.085,1.972,3.334
	C1.577,4.002,1.35,4.786,1.35,5.621c0,1.565,0.799,2.962,2.019,3.777C2.623,9.373,1.927,9.171,1.314,8.83v0.06
	c0,2.197,1.571,4.033,3.639,4.453c-0.371,0.094-0.775,0.158-1.189,0.158c-0.297,0-0.579-0.03-0.86-0.084
	c0.588,1.795,2.251,3.113,4.246,3.16c-1.555,1.214-3.509,1.939-5.643,1.939c-0.369,0-0.73-0.02-1.081-0.07
	c2.005,1.3,4.395,2.054,6.961,2.054c8.364,0,12.937-6.925,12.937-12.929l-0.016-0.588c0.879-0.642,1.653-1.441,2.267-2.355
	c-0.81,0.36-1.688,0.613-2.617,0.721C20.905,4.786,21.626,3.898,21.961,2.841z"/>
</svg>
